Traffic_Light_Control/vcd/traffic_light_control.vcd
$date
	Mon Sep 02 21:12:34 2024
$end
$version
	ModelSim Version 10.5b
$end
$timescale
	10ns
$end

$scope module traffic_light_control_tb $end
$var parameter 32 ! ENDTIME $end
$var reg 1 " clk $end
$var reg 1 # rstb $end

$scope begin initial_block $end
$upscope $end

$scope task main $end
$upscope $end

$scope task clock_gen $end
$upscope $end

$scope task reset_gen $end
$upscope $end

$scope task operation_process $end
$upscope $end

$scope task endsimulation $end
$upscope $end

$scope module u_dut $end
$var parameter 32 $ SIMPLE_DESIGN $end
$var parameter 32 % TIMER_LIMIT $end
$var wire 1 & clk $end
$var wire 1 ' rstb $end
$var reg 1 ( timer_clk $end
$var reg 1 ) output_x $end
$var reg 1 * output_y $end
$var reg 1 + output_z $end

$scope module u_fsm $end
$var parameter 32 , TIMER_LIMIT $end
$var wire 1 - timer_clk $end
$var wire 1 ' rstb $end
$var reg 1 . output_x $end
$var reg 1 / output_y $end
$var reg 1 0 output_z $end
$var reg 1 1 input_a $end
$var reg 1 2 input_b $end

$scope begin input_control $end
$upscope $end

$scope begin light_fsm $end
$upscope $end
$upscope $end

$scope module u_timer_ticker $end
$var parameter 32 3 TIMER_LIMIT $end
$var wire 1 & clk $end
$var wire 1 ' rstb $end
$var reg 1 4 timer_clk $end
$var reg 4 5 timer_tick [3:0] $end

$scope begin timer_tick_iter $end
$upscope $end

$scope begin timer_clk_gen $end
$upscope $end
$upscope $end
$upscope $end
$upscope $end

$scope begin std $end
$upscope $end
$enddefinitions $end
#0
$dumpvars
0"
0#
0(
0)
0*
0+
0.
0/
00
01
02
04
b0 5
b11111010000 !
b0 $
b101 %
b101 ,
b101 3
0&
0'
0-
$end
#10
1"
1&
#20
1#
0"
1'
0&
#30
1"
1&
b1 5
#40
0#
0"
0'
0&
b0 5
#50
1"
1&
#60
0"
0&
#65
1#
1'
#70
1"
1&
b1 5
#80
0"
0&
#90
1"
1&
b10 5
#100
0"
0&
#110
1"
1&
b11 5
#120
0"
0&
#130
1"
1&
b100 5
#140
0"
0&
#150
1"
1&
b101 5
#160
0"
0&
#170
1"
1&
b110 5
14
1(
1-
12
1.
1)
#180
0"
0&
#190
1"
1&
b111 5
#200
0"
0&
#210
1"
1&
b1000 5
#220
0"
0&
#230
1"
1&
b1001 5
#240
0"
0&
#250
1"
1&
b1010 5
#260
0"
0&
#270
1"
1&
b1011 5
#280
0"
0&
#290
1"
1&
b1100 5
#300
0"
0&
#310
1"
1&
b1101 5
#320
0"
0&
#330
1"
1&
b1110 5
#340
0"
0&
#350
1"
1&
b1111 5
#360
0"
0&
#370
1"
1&
b0 5
#380
0"
0&
#390
1"
1&
b1 5
#400
0"
0&
#410
1"
1&
b10 5
#420
0"
0&
#430
1"
1&
b11 5
#440
0"
0&
#450
1"
1&
b100 5
#460
0"
0&
#470
1"
1&
b101 5
#480
0"
0&
#490
1"
1&
b110 5
04
0(
0-
#500
0"
0&
#510
1"
1&
b111 5
#520
0"
0&
#530
1"
1&
b1000 5
#540
0"
0&
#550
1"
1&
b1001 5
#560
0"
0&
#570
1"
1&
b1010 5
#580
0"
0&
#590
1"
1&
b1011 5
#600
0"
0&
#610
1"
1&
b1100 5
#620
0"
0&
#630
1"
1&
b1101 5
#640
0"
0&
#650
1"
1&
b1110 5
#660
0"
0&
#670
1"
1&
b1111 5
#680
0"
0&
#690
1"
1&
b0 5
#700
0"
0&
#710
1"
1&
b1 5
#720
0"
0&
#730
1"
1&
b10 5
#740
0"
0&
#750
1"
1&
b11 5
#760
0"
0&
#770
1"
1&
b100 5
#780
0"
0&
#790
1"
1&
b101 5
#800
0"
0&
#810
1"
1&
b110 5
14
1(
1-
11
02
1/
1*
#820
0"
0&
#830
1"
1&
b111 5
#840
0"
0&
#850
1"
1&
b1000 5
#860
0"
0&
#870
1"
1&
b1001 5
#880
0"
0&
#890
1"
1&
b1010 5
#900
0"
0&
#910
1"
1&
b1011 5
#920
0"
0&
#930
1"
1&
b1100 5
#940
0"
0&
#950
1"
1&
b1101 5
#960
0"
0&
#970
1"
1&
b1110 5
#980
0"
0&
#990
1"
1&
b1111 5
#1000
0"
0&
#1010
1"
1&
b0 5
#1020
0"
0&
#1030
1"
1&
b1 5
#1040
0"
0&
#1050
1"
1&
b10 5
#1060
0"
0&
#1070
1"
1&
b11 5
#1080
0"
0&
#1090
1"
1&
b100 5
#1100
0"
0&
#1110
1"
1&
b101 5
#1120
0"
0&
#1130
1"
1&
b110 5
04
0(
0-
#1140
0"
0&
#1150
1"
1&
b111 5
#1160
0"
0&
#1170
1"
1&
b1000 5
#1180
0"
0&
#1190
1"
1&
b1001 5
#1200
0"
0&
#1210
1"
1&
b1010 5
#1220
0"
0&
#1230
1"
1&
b1011 5
#1240
0"
0&
#1250
1"
1&
b1100 5
#1260
0"
0&
#1270
1"
1&
b1101 5
#1280
0"
0&
#1290
1"
1&
b1110 5
#1300
0"
0&
#1310
1"
1&
b1111 5
#1320
0"
0&
#1330
1"
1&
b0 5
#1340
0"
0&
#1350
1"
1&
b1 5
#1360
0"
0&
#1370
1"
1&
b10 5
#1380
0"
0&
#1390
1"
1&
b11 5
#1400
0"
0&
#1410
1"
1&
b100 5
#1420
0"
0&
#1430
1"
1&
b101 5
#1440
0"
0&
#1450
1"
1&
b110 5
14
1(
1-
01
0/
0*
#1460
0"
0&
#1470
1"
1&
b111 5
#1480
0"
0&
#1490
1"
1&
b1000 5
#1500
0"
0&
#1510
1"
1&
b1001 5
#1520
0"
0&
#1530
1"
1&
b1010 5
#1540
0"
0&
#1550
1"
1&
b1011 5
#1560
0"
0&
#1570
1"
1&
b1100 5
#1580
0"
0&
#1590
1"
1&
b1101 5
#1600
0"
0&
#1610
1"
1&
b1110 5
#1620
0"
0&
#1630
1"
1&
b1111 5
#1640
0"
0&
#1650
1"
1&
b0 5
#1660
0"
0&
#1670
1"
1&
b1 5
#1680
0"
0&
#1690
1"
1&
b10 5
#1700
0"
0&
#1710
1"
1&
b11 5
#1720
0"
0&
#1730
1"
1&
b100 5
#1740
0"
0&
#1750
1"
1&
b101 5
#1760
0"
0&
#1770
1"
1&
b110 5
04
0(
0-
#1780
0"
0&
#1790
1"
1&
b111 5
#1800
0"
0&
#1810
1"
1&
b1000 5
#1820
0"
0&
#1830
1"
1&
b1001 5
#1840
0"
0&
#1850
1"
1&
b1010 5
#1860
0"
0&
#1870
1"
1&
b1011 5
#1880
0"
0&
#1890
1"
1&
b1100 5
#1900
0"
0&
#1910
1"
1&
b1101 5
#1920
0"
0&
#1930
1"
1&
b1110 5
#1940
0"
0&
#1950
1"
1&
b1111 5
#1960
0"
0&
#1970
1"
1&
b0 5
#1980
0"
0&
#1990
1"
1&
b1 5
